# $v08
   $id   $int  $zero  $bool 
  $idq      (      )      < 
define    not 
#
  PRED -> HPRED BOOL ) #1
 HPRED -> PDPAR ) #2
 PDPAR -> ( define ( $idq #3 |
          PDPAR $id #4
  BOOL -> $bool #5 |
          REL #6 |
          ( not BOOL ) #7
   REL -> ( < E E ) #8
 CONST -> $int #9 |
          $zero #10
     E -> CONST #11 |
          $id #12

